<?xml version="1.0" encoding="UTF-8"?>
<svg width="96px" height="95px" viewBox="0 0 96 95" version="1.1" xmlns="http://www.w3.org/2000/svg" xmlns:xlink="http://www.w3.org/1999/xlink">
    <!-- Generator: Sketch 51.3 (57544) - http://www.bohemiancoding.com/sketch -->
    <title>cern</title>
    <desc>Created with Sketch.</desc>
    <defs></defs>
    <g id="Page-1" stroke="none" stroke-width="1" fill="none" fill-rule="evenodd">
        <g id="cern" fill="#22529E" fill-rule="nonzero">
            <path d="M20.4,39.8 C19.9,40.2 18.3,41.2 15.8,41.2 C11.3,41.2 8.3,38.4 8.3,34.1 C8.3,29.8 11.5,27 15.9,27 C17.6,27 19.6,27.5 20.7,28 C20.5,28.5 20.3,29.2 20.2,29.6 L20.1,29.6 C19.3,28.7 17.9,27.9 15.9,27.9 C13.3,27.9 10.4,30 10.4,34.1 C10.4,38.1 13.4,40.2 16.1,40.2 C18.5,40.2 19.7,39.1 20.7,38.2 L20.8,38.3 L20.4,39.8 Z M31.5,40.2 L31.5,39.4 C30.1,39.5 26.4,39.6 25,39.7 C25,39.3 24.9,35 25,34.4 C25.6,34.4 28.7,34.4 30,34.6 C30,34.4 29.9,34.1 29.9,33.9 C29.9,33.7 29.9,33.3 30,33.1 C28.8,33.2 27.3,33.3 25,33.3 C25,32.8 25,29.2 25.1,28.3 C27.7,28.3 30,28.5 31.3,28.6 L31.3,27.2 C30.6,27.2 28.4,27.3 27.2,27.3 C26,27.3 24.2,27.3 23,27.2 C23.1,28.9 23.2,30.6 23.2,32.3 L23.2,35.7 C23.2,37.4 23.1,39.1 23,40.9 C24.2,40.8 26.1,40.8 27.3,40.8 L29,40.8 C29.9,40.8 30.9,40.8 31.6,40.9 C31.5,40.7 31.5,40.5 31.5,40.2 Z M36,34.2 L36,35.8 C36,37.5 36.1,39.2 36.2,41 C35.9,40.9 35.2,40.9 35.1,40.9 C35,40.9 34.4,40.9 34,41 C34.1,39.3 34.2,37.6 34.2,35.8 L34.2,32.4 C34.2,30.7 34.1,29 34,27.2 C34.8,27.3 35.7,27.3 36.5,27.3 C37.3,27.3 38,27.2 38.8,27.2 C41,27.2 43.1,27.9 43.1,30.4 C43.1,33 40.5,34 38.9,34.2 C39.9,35.4 43.4,39.7 44.5,41 C44.1,40.9 43.4,40.9 43.3,40.9 C43.1,40.9 42.4,40.9 42.1,41 C41.3,39.8 38.8,36 37.1,34.3 C36.9,34.2 36,34.2 36,34.2 Z M37.3,33.5 C38.9,33.5 41.1,32.9 41.1,30.7 C41.1,28.7 39.4,28.1 38,28.1 C37.1,28.1 36.5,28.2 36.1,28.2 C36,29.7 36,31 36,32.4 L36,33.5 L37.3,33.5 Z M58.5,27.2 C58.3,27.2 58,27.3 57.6,27.3 C57.3,27.3 57,27.3 56.8,27.2 C56.9,28.8 57,31.8 57,33.8 L57,37.3 C56.3,36.5 48,27.9 47.1,27 L46.4,27 C46.4,28.3 46.5,29.6 46.5,32.1 C46.5,35.3 46.5,38.7 46.3,40.8 C46.5,40.8 46.8,40.7 47.2,40.7 C47.5,40.7 47.8,40.7 48,40.8 C47.9,39.2 47.8,36.2 47.8,34.2 L47.8,30.4 C48.5,31.2 56.9,39.9 57.7,41 L58.4,41 C58.4,39.7 58.3,38.3 58.3,35.8 C58.3,32.7 58.3,29.3 58.5,27.2 Z M22.2,63 C18.3,56.8 17.2,50.8 17,46.3 L15.2,46.3 C15.4,51.3 16.6,56.5 19.3,61.6 C20,62.2 21.5,62.8 22.2,63 Z" id="Shape"></path>
            <path d="M95.3,1.3 C95.3,1.3 50.3,0.9 36,1 C33.8,1 32.2,1.2 31.8,1.2 C14.1,2.3 0.8,17.9 0.7,34.8 C0.7,39.7 2,45.3 4.1,52.8 C6.9,62.7 10.2,74 10.2,74 L12,74 L5.4,51.6 L5.5,51.6 C10.4,61 21.6,68.6 34.4,68.6 C41.3,68.6 47.7,66.7 52.7,63.1 L23.2,94.5 L25.5,94.5 C25.5,94.5 46.2,72.4 53.3,64.9 C58.7,59.2 61.5,55.5 62.7,53.5 C64,51.3 68.3,45 68.2,35.6 L68.3,35.6 L81,94.6 L82.9,94.6 C82.9,94.6 72,46.5 69.9,36.4 C67.8,26.5 65.4,20.3 62.7,16.8 C61.8,16.3 60.4,15.7 59.7,15.6 C63.5,20.4 66.4,27.6 66.4,34.9 C66.4,52.5 52,66.9 34.4,66.9 C16.8,66.9 2.4,52.5 2.4,34.9 C2.4,17.3 16.8,2.9 34.4,2.9 C42.2,2.9 49.5,5.8 55,10.5 C56.1,10.6 57.5,11 58.4,11.3 C54.4,7.3 49.4,4.3 43.8,2.8 L95.1,3.1 L95.3,1.3 Z" id="Shape"></path>
            <path d="M26.7,68.7 C25.6,68.5 24.1,68.1 23.3,67.8 C27.2,72.2 32.5,75.7 37.7,77.7 L39.1,76.3 C33.4,74.3 29.3,71.2 26.7,68.7 Z M73.8,66.2 C68.1,73.2 59.2,77.9 49,77.9 C46.8,77.9 44.7,77.7 42.9,77.3 L41.4,78.9 C44.2,79.5 46.7,79.8 49,79.8 C59.5,79.8 68.4,74.9 74.1,68.5 L73.8,66.2 Z M85.7,9.4 L82.6,41.2 L82.5,41.2 C82.1,35.2 79.1,28 75.4,23.5 C69,15.6 59.6,10.9 49,10.9 C38.9,10.9 29.9,15.4 23.7,22.4 L25.1,23.5 C30.9,16.9 39.3,12.7 48.9,12.7 C60.6,12.7 70.2,18.7 75.5,26.9 C80.3,34.2 81.9,43.5 80.7,50.4 C80.3,52.7 79.5,57.2 76.4,62.3 L76.9,64.7 C80.7,58.8 82.6,53.6 84.1,40.3 C85.2,30.1 87.2,9.5 87.2,9.5 L85.7,9.4 Z" id="Shape"></path>
        </g>
    </g>
</svg>